PCBNEW-LibModule-V1  Mo 03 Aug 2015 19:32:46 CEST
# encoding utf-8
Units mm
$INDEX
ARDUINO_PRO_MICRO
$EndINDEX
$MODULE ARDUINO_PRO_MICRO
Po 0 0 0 15 55BFA51E 00000000 ~~
Li ARDUINO_PRO_MICRO
Cd Arduino pro micro, SMD-ish
Kw arduino
Sc 0
AR /55BE92D0
Op 0 0 0
T0 -13.97 6.35 1.778 1.143 0 0.28702 N V 21 N "U1"
T1 7.62 6.35 1.778 1.143 0 0.28702 N V 21 N "ARDUINO_PRO_MICRO"
DS -15.24 -6.35 -15.24 8.89 0.15 21
DS 17.78 -5.715 17.78 9.525 0.15 21
DS -17.78 -2.54 -13.97 -2.54 0.15 21
DS -13.97 -2.54 -13.97 3.81 0.15 21
DS -13.97 3.81 -13.97 5.08 0.15 21
DS -13.97 5.08 -17.78 5.08 0.15 21
DS -17.78 5.08 -17.78 -2.54 0.15 21
DS -15.24 -5.715 17.78 -5.715 0.381 21
DS 17.78 8.89 -15.24 8.89 0.381 21
$PAD
Sh "1" R 1 4.5 0 0 0
Dr 0 0 0
At SMD N 00888000
Ne 0 ""
Po -12.7 11.43
$EndPAD
$PAD
Sh "2" R 1 4.5 0 0 0
Dr 0 0 0
At SMD N 00888000
Ne 0 ""
Po -10.16 11.43
$EndPAD
$PAD
Sh "3" R 1 4.5 0 0 0
Dr 0 0 0
At SMD N 00888000
Ne 1 "GND"
Po -7.62 11.43
$EndPAD
$PAD
Sh "4" R 1 4.5 0 0 0
Dr 0 0 0
At SMD N 00888000
Ne 1 "GND"
Po -5.08 11.43
$EndPAD
$PAD
Sh "5" R 1 4.5 0 0 0
Dr 0 0 0
At SMD N 00888000
Ne 0 ""
Po -2.54 11.43
$EndPAD
$PAD
Sh "6" R 1 4.5 0 0 0
Dr 0 0 0
At SMD N 00888000
Ne 0 ""
Po 0 11.43
$EndPAD
$PAD
Sh "7" R 1 4.5 0 0 0
Dr 0 0 0
At SMD N 00888000
Ne 0 ""
Po 2.54 11.43
$EndPAD
$PAD
Sh "8" R 1 4.5 0 0 0
Dr 0 0 0
At SMD N 00888000
Ne 3 "N-0000011"
Po 5.08 11.43
$EndPAD
$PAD
Sh "9" R 1 4.5 0 0 0
Dr 0 0 0
At SMD N 00888000
Ne 0 ""
Po 7.62 11.43
$EndPAD
$PAD
Sh "10" R 1 4.5 0 0 0
Dr 0 0 0
At SMD N 00888000
Ne 0 ""
Po 10.16 11.43
$EndPAD
$PAD
Sh "11" R 1 4.5 0 0 0
Dr 0 0 0
At SMD N 00888000
Ne 0 ""
Po 12.7 11.43
$EndPAD
$PAD
Sh "12" R 1 4.5 0 0 0
Dr 0 0 0
At SMD N 00888000
Ne 0 ""
Po 15.24 11.43
$EndPAD
$PAD
Sh "13" R 1 4.5 0 0 0
Dr 0 0 0
At SMD N 00888000
Ne 5 "N-000007"
Po 15.24 -8.255
$EndPAD
$PAD
Sh "14" R 1 4.5 0 0 0
Dr 0 0 0
At SMD N 00888000
Ne 6 "N-000008"
Po 12.7 -8.255
$EndPAD
$PAD
Sh "15" R 1 4.5 0 0 0
Dr 0 0 0
At SMD N 00888000
Ne 7 "N-000009"
Po 10.16 -8.255
$EndPAD
$PAD
Sh "16" R 1 4.5 0 0 0
Dr 0 0 0
At SMD N 00888000
Ne 0 ""
Po 7.62 -8.255
$EndPAD
$PAD
Sh "17" R 1 4.5 0 0 0
Dr 0 0 0
At SMD N 00888000
Ne 2 "N-0000010"
Po 5.08 -8.255
$EndPAD
$PAD
Sh "18" R 1 4.5 0 0 0
Dr 0 0 0
At SMD N 00888000
Ne 4 "N-000002"
Po 2.54 -8.255
$EndPAD
$PAD
Sh "19" R 1 4.5 0 0 0
Dr 0 0 0
At SMD N 00888000
Ne 0 ""
Po 0 -8.255
$EndPAD
$PAD
Sh "20" R 1 4.5 0 0 0
Dr 0 0 0
At SMD N 00888000
Ne 0 ""
Po -2.54 -8.255
$EndPAD
$PAD
Sh "21" R 1 4.5 0 0 0
Dr 0 0 0
At SMD N 00888000
Ne 8 "VCC"
Po -5.08 -8.255
$EndPAD
$PAD
Sh "22" R 1 4.5 0 0 0
Dr 0 0 0
At SMD N 00888000
Ne 0 ""
Po -7.62 -8.255
$EndPAD
$PAD
Sh "23" R 1 4.5 0 0 0
Dr 0 0 0
At SMD N 00888000
Ne 1 "GND"
Po -10.16 -8.255
$EndPAD
$PAD
Sh "24" R 1 4.5 0 0 0
Dr 0 0 0
At SMD N 00888000
Ne 0 ""
Po -12.7 -8.255
$EndPAD
$EndMODULE ARDUINO_PRO_MICRO
$EndLIBRARY
