PCBNEW-LibModule-V1  Mo 03 Aug 2015 03:59:46 CEST
# encoding utf-8
Units mm
$INDEX
DIP-8__300
TO220_VERT-smd
dip8-smd
$EndINDEX
$MODULE DIP-8__300
Po 0 0 0 15 55BECA15 00000000 ~~
Li DIP-8__300
Cd 8 pins DIL package, round pads
Kw DIL
Sc 0
AR /55BE8C66
Op 0 0 0
T0 -6.35 0 1.27 1.143 900 0.2032 N V 21 N "U2"
T1 0 0 1.27 1.016 0 0.2032 N V 21 N "LM358"
DS -5.08 -1.27 -3.81 -1.27 0.254 21
DS -3.81 -1.27 -3.81 1.27 0.254 21
DS -3.81 1.27 -5.08 1.27 0.254 21
DS -5.08 -2.54 5.08 -2.54 0.254 21
DS 5.08 -2.54 5.08 2.54 0.254 21
DS 5.08 2.54 -5.08 2.54 0.254 21
DS -5.08 2.54 -5.08 -2.54 0.254 21
$PAD
Sh "1" T 1.397 3 0 0 0
Dr 0 0 0
At SMD N 00888000
Ne 0 ""
Po -3.81 3.81
$EndPAD
$PAD
Sh "2" T 1.397 3 0 0 0
Dr 0 0 0
At SMD N 00888000
Ne 0 ""
Po -1.27 3.81
$EndPAD
$PAD
Sh "3" T 1.397 3 0 0 0
Dr 0 0 0
At SMD N 00888000
Ne 0 ""
Po 1.27 3.81
$EndPAD
$PAD
Sh "4" T 1.397 3 0 0 0
Dr 0 0 0
At SMD N 00888000
Ne 0 ""
Po 3.81 3.81
$EndPAD
$PAD
Sh "5" T 1.397 3 0 0 0
Dr 0 0 0
At SMD N 00888000
Ne 0 ""
Po 3.81 -3.81
$EndPAD
$PAD
Sh "6" T 1.397 3 0 0 0
Dr 0 0 0
At SMD N 00888000
Ne 0 ""
Po 1.27 -3.81
$EndPAD
$PAD
Sh "7" T 1.397 3 0 0 0
Dr 0 0 0
At SMD N 00888000
Ne 0 ""
Po -1.27 -3.81
$EndPAD
$PAD
Sh "8" T 1.397 3 0 0 0
Dr 0 0 0
At SMD N 00888000
Ne 0 ""
Po -3.81 -3.81
$EndPAD
$SHAPE3D
Na "dil/dil_8.wrl"
Sc 1 1 1
Of 0 0 0
Ro 0 0 0
$EndSHAPE3D
$EndMODULE DIP-8__300
$MODULE TO220_VERT-smd
Po 0 0 0 15 55BECAFB 00000000 ~~
Li TO220_VERT-smd
Cd Regulateur TO220 serie LM78xx
Kw TR TO220
Sc 0
AR /55BE8C8F
Op 0 0 0
T0 -3.175 0 1.524 1.016 900 0.2032 N V 21 N "Q1"
T1 0.635 -6.35 1.524 1.016 0 0.2032 N V 21 N "BD433"
DS 1.905 -5.08 2.54 -5.08 0.381 21
DS 2.54 -5.08 2.54 5.08 0.381 21
DS 2.54 5.08 1.905 5.08 0.381 21
DS -1.905 -5.08 1.905 -5.08 0.381 21
DS 1.905 -5.08 1.905 5.08 0.381 21
DS 1.905 5.08 -1.905 5.08 0.381 21
DS -1.905 5.08 -1.905 -5.08 0.381 21
$PAD
Sh "2" C 1.778 1.778 0 0 0
Dr 0 0 0
At SMD N 00888000
Ne 1 "+BATT"
Po 0 -2.54
$EndPAD
$PAD
Sh "3" C 1.778 1.778 0 0 0
Dr 0 0 0
At SMD N 00888000
Ne 2 "N-0000012"
Po 0 0
$EndPAD
$PAD
Sh "1" C 1.778 1.778 0 0 0
Dr 0 0 0
At SMD N 00888000
Ne 3 "N-0000024"
Po 0 2.54
$EndPAD
$EndMODULE TO220_VERT-smd
$MODULE dip8-smd
Po 0 0 0 15 55BECABE 00000000 ~~
Li dip8-smd
Cd 8 pins DIL package, round pads
Kw DIL
Sc 0
AR /55BE8C66
Op 0 0 0
T0 -6.35 0 1.27 1.143 900 0.2032 N V 21 N "U2"
T1 0 0 1.27 1.016 0 0.2032 N V 21 N "LM358"
DS -5.08 -1.27 -3.81 -1.27 0.254 21
DS -3.81 -1.27 -3.81 1.27 0.254 21
DS -3.81 1.27 -5.08 1.27 0.254 21
DS -5.08 -2.54 5.08 -2.54 0.254 21
DS 5.08 -2.54 5.08 2.54 0.254 21
DS 5.08 2.54 -5.08 2.54 0.254 21
DS -5.08 2.54 -5.08 -2.54 0.254 21
$PAD
Sh "1" T 1.397 3 0 0 0
Dr 0 0 0
At SMD N 00888000
Ne 0 ""
Po -3.81 3.81
$EndPAD
$PAD
Sh "2" T 1.397 3 0 0 0
Dr 0 0 0
At SMD N 00888000
Ne 0 ""
Po -1.27 3.81
$EndPAD
$PAD
Sh "3" T 1.397 3 0 0 0
Dr 0 0 0
At SMD N 00888000
Ne 0 ""
Po 1.27 3.81
$EndPAD
$PAD
Sh "4" T 1.397 3 0 0 0
Dr 0 0 0
At SMD N 00888000
Ne 0 ""
Po 3.81 3.81
$EndPAD
$PAD
Sh "5" T 1.397 3 0 0 0
Dr 0 0 0
At SMD N 00888000
Ne 0 ""
Po 3.81 -3.81
$EndPAD
$PAD
Sh "6" T 1.397 3 0 0 0
Dr 0 0 0
At SMD N 00888000
Ne 0 ""
Po 1.27 -3.81
$EndPAD
$PAD
Sh "7" T 1.397 3 0 0 0
Dr 0 0 0
At SMD N 00888000
Ne 0 ""
Po -1.27 -3.81
$EndPAD
$PAD
Sh "8" T 1.397 3 0 0 0
Dr 0 0 0
At SMD N 00888000
Ne 0 ""
Po -3.81 -3.81
$EndPAD
$SHAPE3D
Na "dil/dil_8.wrl"
Sc 1 1 1
Of 0 0 0
Ro 0 0 0
$EndSHAPE3D
$EndMODULE dip8-smd
$EndLIBRARY
