EESchema Schematic File Version 2
LIBS:power
LIBS:device
LIBS:transistors
LIBS:conn
LIBS:linear
LIBS:regul
LIBS:74xx
LIBS:cmos4000
LIBS:adc-dac
LIBS:memory
LIBS:xilinx
LIBS:special
LIBS:microcontrollers
LIBS:dsp
LIBS:microchip
LIBS:analog_switches
LIBS:motorola
LIBS:texas
LIBS:intel
LIBS:audio
LIBS:interface
LIBS:digital-audio
LIBS:philips
LIBS:display
LIBS:cypress
LIBS:siliconi
LIBS:opto
LIBS:atmel
LIBS:contrib
LIBS:valves
LIBS:arduino_pro_micro
LIBS:discharge-cache
EELAYER 27 0
EELAYER END
$Descr A4 11693 8268
encoding utf-8
Sheet 1 1
Title ""
Date "3 aug 2015"
Rev ""
Comp ""
Comment1 ""
Comment2 ""
Comment3 ""
Comment4 ""
$EndDescr
$Comp
L LM358 U2
U 1 1 55BE8C66
P 6100 2750
F 0 "U2" H 6050 2950 60  0000 L CNN
F 1 "LM358" H 6050 2500 60  0000 L CNN
F 2 "" H 6100 2750 60  0000 C CNN
F 3 "" H 6100 2750 60  0000 C CNN
	1    6100 2750
	1    0    0    -1  
$EndComp
$Comp
L BD433 Q1
U 1 1 55BE8C8F
P 7300 2750
F 0 "Q1" H 7300 2600 40  0000 R CNN
F 1 "BD433" H 7300 2900 40  0000 R CNN
F 2 "TO126" H 7180 2850 29  0000 C CNN
F 3 "" H 7300 2750 60  0000 C CNN
	1    7300 2750
	1    0    0    -1  
$EndComp
$Comp
L GND #PWR01
U 1 1 55BE8CA7
P 7400 4300
F 0 "#PWR01" H 7400 4300 30  0001 C CNN
F 1 "GND" H 7400 4230 30  0001 C CNN
F 2 "" H 7400 4300 60  0000 C CNN
F 3 "" H 7400 4300 60  0000 C CNN
	1    7400 4300
	1    0    0    -1  
$EndComp
$Comp
L R R6
U 1 1 55BE8D91
P 4700 2250
F 0 "R6" V 4780 2250 40  0000 C CNN
F 1 "22k" V 4707 2251 40  0000 C CNN
F 2 "~" V 4630 2250 30  0000 C CNN
F 3 "~" H 4700 2250 30  0000 C CNN
	1    4700 2250
	1    0    0    -1  
$EndComp
$Comp
L R R5
U 1 1 55BE8DC1
P 4500 3050
F 0 "R5" V 4580 3050 40  0000 C CNN
F 1 "1k" V 4507 3051 40  0000 C CNN
F 2 "~" V 4430 3050 30  0000 C CNN
F 3 "~" H 4500 3050 30  0000 C CNN
	1    4500 3050
	1    0    0    -1  
$EndComp
$Comp
L C C1
U 1 1 55BE8DD8
P 4850 3050
F 0 "C1" H 4850 3150 40  0000 L CNN
F 1 "47u" H 4856 2965 40  0000 L CNN
F 2 "~" H 4888 2900 30  0000 C CNN
F 3 "~" H 4850 3050 60  0000 C CNN
	1    4850 3050
	1    0    0    -1  
$EndComp
$Comp
L GND #PWR02
U 1 1 55BE8E16
P 4700 3450
F 0 "#PWR02" H 4700 3450 30  0001 C CNN
F 1 "GND" H 4700 3380 30  0001 C CNN
F 2 "" H 4700 3450 60  0000 C CNN
F 3 "" H 4700 3450 60  0000 C CNN
	1    4700 3450
	1    0    0    -1  
$EndComp
$Comp
L +BATT #PWR03
U 1 1 55BE8EA7
P 7400 2100
F 0 "#PWR03" H 7400 2050 20  0001 C CNN
F 1 "+BATT" H 7400 2200 30  0000 C CNN
F 2 "" H 7400 2100 60  0000 C CNN
F 3 "" H 7400 2100 60  0000 C CNN
	1    7400 2100
	1    0    0    -1  
$EndComp
$Comp
L GND #PWR04
U 1 1 55BE8F6C
P 6000 3250
F 0 "#PWR04" H 6000 3250 30  0001 C CNN
F 1 "GND" H 6000 3180 30  0001 C CNN
F 2 "" H 6000 3250 60  0000 C CNN
F 3 "" H 6000 3250 60  0000 C CNN
	1    6000 3250
	1    0    0    -1  
$EndComp
$Comp
L VCC #PWR05
U 1 1 55BE8FEE
P 6000 2100
F 0 "#PWR05" H 6000 2200 30  0001 C CNN
F 1 "VCC" H 6000 2200 30  0000 C CNN
F 2 "" H 6000 2100 60  0000 C CNN
F 3 "" H 6000 2100 60  0000 C CNN
	1    6000 2100
	1    0    0    -1  
$EndComp
$Comp
L ARDUINO_PRO_MICRO U1
U 1 1 55BE92D0
P 2250 2900
F 0 "U1" H 2750 1950 70  0000 C CNN
F 1 "ARDUINO_PRO_MICRO" H 3000 1850 70  0000 C CNN
F 2 "DIL20" H 2250 2850 60  0000 C CNN
F 3 "" H 2250 2900 60  0000 C CNN
	1    2250 2900
	1    0    0    -1  
$EndComp
$Comp
L GND #PWR06
U 1 1 55BE92E7
P 2250 4700
F 0 "#PWR06" H 2250 4700 30  0001 C CNN
F 1 "GND" H 2250 4630 30  0001 C CNN
F 2 "" H 2250 4700 60  0000 C CNN
F 3 "" H 2250 4700 60  0000 C CNN
	1    2250 4700
	1    0    0    -1  
$EndComp
$Comp
L VCC #PWR07
U 1 1 55BE9302
P 2100 1500
F 0 "#PWR07" H 2100 1600 30  0001 C CNN
F 1 "VCC" H 2100 1600 30  0000 C CNN
F 2 "" H 2100 1500 60  0000 C CNN
F 3 "" H 2100 1500 60  0000 C CNN
	1    2100 1500
	1    0    0    -1  
$EndComp
$Comp
L R R1
U 1 1 55BE94B8
P 3250 2100
F 0 "R1" V 3330 2100 40  0000 C CNN
F 1 "2.2k" V 3257 2101 40  0000 C CNN
F 2 "~" V 3180 2100 30  0000 C CNN
F 3 "~" H 3250 2100 30  0000 C CNN
	1    3250 2100
	1    0    0    -1  
$EndComp
$Comp
L R R3
U 1 1 55BE94BE
P 3450 2100
F 0 "R3" V 3530 2100 40  0000 C CNN
F 1 "3.9k" V 3457 2101 40  0000 C CNN
F 2 "~" V 3380 2100 30  0000 C CNN
F 3 "~" H 3450 2100 30  0000 C CNN
	1    3450 2100
	1    0    0    -1  
$EndComp
$Comp
L R R4
U 1 1 55BE94C4
P 3650 2100
F 0 "R4" V 3730 2100 40  0000 C CNN
F 1 "22k" V 3657 2101 40  0000 C CNN
F 2 "~" V 3580 2100 30  0000 C CNN
F 3 "~" H 3650 2100 30  0000 C CNN
	1    3650 2100
	1    0    0    -1  
$EndComp
$Comp
L R R2
U 1 1 55BE954A
P 3450 1400
F 0 "R2" V 3530 1400 40  0000 C CNN
F 1 "22k" V 3457 1401 40  0000 C CNN
F 2 "~" V 3380 1400 30  0000 C CNN
F 3 "~" H 3450 1400 30  0000 C CNN
	1    3450 1400
	1    0    0    -1  
$EndComp
$Comp
L +BATT #PWR08
U 1 1 55BE961E
P 3450 950
F 0 "#PWR08" H 3450 900 20  0001 C CNN
F 1 "+BATT" H 3450 1050 30  0000 C CNN
F 2 "" H 3450 950 60  0000 C CNN
F 3 "" H 3450 950 60  0000 C CNN
	1    3450 950 
	1    0    0    -1  
$EndComp
$Comp
L GND #PWR09
U 1 1 55BE9935
P 8650 2550
F 0 "#PWR09" H 8650 2550 30  0001 C CNN
F 1 "GND" H 8650 2480 30  0001 C CNN
F 2 "" H 8650 2550 60  0000 C CNN
F 3 "" H 8650 2550 60  0000 C CNN
	1    8650 2550
	1    0    0    -1  
$EndComp
$Comp
L +BATT #PWR010
U 1 1 55BE9942
P 8650 1850
F 0 "#PWR010" H 8650 1800 20  0001 C CNN
F 1 "+BATT" H 8650 1950 30  0000 C CNN
F 2 "" H 8650 1850 60  0000 C CNN
F 3 "" H 8650 1850 60  0000 C CNN
	1    8650 1850
	1    0    0    -1  
$EndComp
$Comp
L C C2
U 1 1 55BE994A
P 8650 2200
F 0 "C2" H 8650 2300 40  0000 L CNN
F 1 "1000u" H 8656 2115 40  0000 L CNN
F 2 "~" H 8688 2050 30  0000 C CNN
F 3 "~" H 8650 2200 60  0000 C CNN
	1    8650 2200
	1    0    0    -1  
$EndComp
$Comp
L C C3
U 1 1 55BE99D0
P 9200 2200
F 0 "C3" H 9200 2300 40  0000 L CNN
F 1 "1000u" H 9206 2115 40  0000 L CNN
F 2 "~" H 9238 2050 30  0000 C CNN
F 3 "~" H 9200 2200 60  0000 C CNN
	1    9200 2200
	1    0    0    -1  
$EndComp
$Comp
L GND #PWR011
U 1 1 55BE99D6
P 9200 2550
F 0 "#PWR011" H 9200 2550 30  0001 C CNN
F 1 "GND" H 9200 2480 30  0001 C CNN
F 2 "" H 9200 2550 60  0000 C CNN
F 3 "" H 9200 2550 60  0000 C CNN
	1    9200 2550
	1    0    0    -1  
$EndComp
$Comp
L VCC #PWR012
U 1 1 55BE99DC
P 9200 1800
F 0 "#PWR012" H 9200 1900 30  0001 C CNN
F 1 "VCC" H 9200 1900 30  0000 C CNN
F 2 "" H 9200 1800 60  0000 C CNN
F 3 "" H 9200 1800 60  0000 C CNN
	1    9200 1800
	1    0    0    -1  
$EndComp
Wire Wire Line
	4500 3300 4700 3300
Wire Wire Line
	4700 3300 4850 3300
Wire Wire Line
	4700 3300 4700 3450
Wire Wire Line
	4850 3300 4850 3250
Connection ~ 4700 3300
Wire Wire Line
	4850 2750 4850 2850
Wire Wire Line
	4500 2750 4700 2750
Wire Wire Line
	4700 2750 4850 2750
Wire Wire Line
	4700 2500 4700 2650
Wire Wire Line
	4700 2650 4700 2750
Wire Wire Line
	4500 2800 4500 2750
Connection ~ 4700 2750
Wire Wire Line
	7400 4100 7400 4300
Wire Wire Line
	7400 2950 7400 3450
Wire Wire Line
	7400 3450 7400 3600
Wire Wire Line
	7400 2100 7400 2550
Wire Wire Line
	4700 2650 5600 2650
Connection ~ 4700 2650
Wire Wire Line
	5600 2850 5600 3450
Wire Wire Line
	5600 3450 5600 5050
Wire Wire Line
	5600 3450 7400 3450
Connection ~ 7400 3450
Wire Wire Line
	6000 3150 6000 3250
Wire Wire Line
	6600 2750 7100 2750
Wire Wire Line
	6000 2350 6000 2100
Wire Wire Line
	2250 4450 2250 4700
Wire Wire Line
	2100 1750 2100 1500
Wire Wire Line
	2950 3200 4150 3200
Wire Wire Line
	4150 3200 4150 1750
Wire Wire Line
	4150 1750 4700 1750
Wire Wire Line
	4700 1750 4700 2000
Wire Wire Line
	1550 2800 1150 2800
Wire Wire Line
	1150 2800 1150 5050
Wire Wire Line
	1150 5050 5600 5050
Connection ~ 5600 3450
Wire Wire Line
	3250 1050 3250 1750
Wire Wire Line
	3250 1750 3250 1850
Wire Wire Line
	3250 1750 3450 1750
Wire Wire Line
	3450 1750 3650 1750
Wire Wire Line
	3650 1750 3650 1850
Wire Wire Line
	3450 1650 3450 1750
Wire Wire Line
	3450 1750 3450 1850
Connection ~ 3450 1750
Wire Wire Line
	1550 2700 1150 2700
Wire Wire Line
	1150 2700 1150 2050
Wire Wire Line
	1150 2050 1150 1950
Wire Wire Line
	1150 1950 1150 1050
Wire Wire Line
	1150 1050 3250 1050
Connection ~ 3250 1750
Wire Wire Line
	3450 1150 3450 950 
Wire Wire Line
	2950 2350 3250 2350
Wire Wire Line
	3450 2350 3450 2450
Wire Wire Line
	3450 2450 2950 2450
Wire Wire Line
	3650 2350 3650 2550
Wire Wire Line
	3650 2550 2950 2550
Wire Wire Line
	8650 2400 8650 2550
Wire Wire Line
	8650 2000 8650 1850
Wire Wire Line
	9200 1800 9200 2000
Wire Wire Line
	9200 2400 9200 2550
$Comp
L R R7
U 1 1 55BE8D41
P 7400 3850
F 0 "R7" V 7480 3850 40  0000 C CNN
F 1 "0,1" V 7407 3851 40  0000 C CNN
F 2 "~" V 7330 3850 30  0000 C CNN
F 3 "~" H 7400 3850 30  0000 C CNN
	1    7400 3850
	1    0    0    -1  
$EndComp
$EndSCHEMATC
